gfa.org|gfaau.org
Wills Point, TX 75169|Toowoomba QLD 4350
Wills Point, TX|Toowoomba QLD
1116 St. Thomas Way|PO Box 3587
800-WIN-ASIA|1300 889 339
888-WIN-ASIA|1300 889 339
www_gfa_org|www_gfaau_org
gfa.ca|gfaau.org
catalog|catalogue
savior|saviour
color|colour
favorite|favourite
tumor|tumour
neighbor|neighbour
worshiping|worshipping
Gospel for Asia|GFA World
gfauk.org|gfaau.org
P.O. Box 316, Manchester, M22 2DJ - 0161 946 9484|PO Box 3587 - Toowoomba QLD 4350 - 1300 889 339
program|programme
245 King St. E. - Stoney Creek, ON L8G 1L9 - 888-946-2742|PO Box 3587 - Toowoomba QLD 4350 - 1300 889 339
gfa.org|gfaau.org
PO Box 302580 - North Harbour, Auckland 0751 - 0800 819 819|PO Box 3587 - Toowoomba QLD 4350 - 1300 889 339
honor|honour
Wills Point|Toowoomba
TX 75169|QLD 4350
GFA Digest|GFA World Australia Digest
